Game of Thrones episodes — gameofthrones • tRakt
…
trakt, tvdb, tmdbEpisode IDs for trakt.tv, TVDb, and TMDb

yearYear of first airing

epidEpisode ID in s00e00 format

    See also

    Other Episode datasets: 
futurama

    Examples

gameofthrones
#> # A tibble: 73 x 18
#>    episode_abs episode season runtime title overview rating votes viewers
#>          <int>   <int>  <int>   <int> <chr> <chr>     <dbl> <int>   <dbl>
#>  1           1       1      1      61 Wint… "Ned St…   8.09 15775    2.22
#>  2           2       2      1      55 The … "Having…   8.10 12267    2.2 
#>  3           3       3      1      57 Lord… "Arrivi…   8.03 11273    2.44
#>  4           4       4      1      55 Crip… "Ned lo…   8.06 10762    2.45
#>  5           5       5      1      54 The … "Incens…   8.09 10380    2.58
#>  6           6       6      1      52 A Go… "Reinst…   8.28 10343    2.44
#>  7           7       7      1      57 You … "Explai…   8.25 10135    2.4 
#>  8           8       8      1      58 The … "In the…   8.12  9785    2.72
#>  9           9       9      1      56 Bael… "With S…   8.34  9846    2.66
#> 10          10      10      1      52 Fire… "As tra…   8.57  9921    3.04
#> # … with 63 more rows, and 9 more variables: director <chr>, writer <chr>,
#> #   first_aired <dttm>, comment_count <int>, trakt <chr>, imdb <chr>,
#> #   tvdb <chr>, tmdb <chr>, updated_at <dttm>
…
