…
## Examples

``` r
movies_watching("deadpool-2016")
#> # A tibble: 1 × 8
#>   username        private deleted user_name   vip   vip_ep director user_slug   
#>   <chr>           <lgl>   <lgl>   <chr>       <lgl> <lgl>  <lgl>    <chr>       
#> 1 jarvis-15971410 FALSE   FALSE   Mihai Simea FALSE FALSE  FALSE    jarvis-1597…
shows_watching("the-simpsons")
#> # A tibble: 25 × 8
#>    username     private deleted user_name        vip   vip_ep director user_slug
#>    <chr>        <lgl>   <lgl>   <chr>            <lgl> <lgl>  <lgl>    <chr>    
#>  1 mattblack_uk FALSE   FALSE   Harry Keogh      FALSE FALSE  FALSE    mattblac…
#>  2 BriLach7!    FALSE   FALSE   Brilach          FALSE FALSE  FALSE    brilach7 
#>  3 jdallen1226  FALSE   FALSE   James Allen II   FALSE FALSE  FALSE    jdallen1…
#>  4 maxpower212  FALSE   FALSE   maxpower212      FALSE FALSE  FALSE    maxpower…
#>  5 KNGRay123    FALSE   FALSE   Handsome Degaldo FALSE FALSE  FALSE    kngray123
#>  6 ShuntTheRich FALSE   FALSE   ShuntTheRich     FALSE FALSE  FALSE    shuntthe…
#>  7 chriswatts91 FALSE   FALSE   Chris Watts      FALSE FALSE  FALSE    chriswat…
#>  8 slvrflme147  FALSE   FALSE   slvrflme147      FALSE FALSE  FALSE    slvrflme…
#>  9 s9yoeK3CxgF9 FALSE   FALSE   xxx              FALSE FALSE  FALSE    s9yoek3c…
#> 10 brianleb     FALSE   FALSE   Brian            FALSE FALSE  FALSE    brianleb 
#> # ℹ 15 more rows
…
