Get translations for a movie, show or episode — media_translations • tRakt
…
    Examples

# Get all translations
movies_translations("193972")
#> # A tibble: 45 × 5
#>    title                                      overview  tagline language country
#>    <chr>                                      <chr>     <chr>   <chr>    <chr>  
#>  1 حكاية لعبة 4                               "استعد ل… مغامرة… ar       sa     
#>  2 Играта на играчките: Пътешествието         "Уди вин… Приклю… bg       bg     
#>  3 NA                                         "Compte!… Torna … ca       es     
#>  4 Toy Story 4: Příběh hraček                 "Kovboj … Připra… cs       cz     
#>  5 NA                                         "Siden A… NA      da       dk     
#>  6 Toy Story 4 - Alles hört auf kein Kommando "Die Cow… Hier s… de       de     
#>  7 Η Ιστορία των Παιχνιδιών 4                 "Στη διά… Η περι… el       gr     
#>  8 Toy Story 4                                "Woody h… Get Re… en       us     
#>  9 NA                                         "Cuando … Woody … es       mx     
#> 10 NA                                         "Woody s… La ave… es       es     
#> # ℹ 35 more rows
…
