Get who's watching a thing right now — media_watching • tRakt
…
    Examples

# \dontrun{
movies_watching("deadpool-2016")
#> # A tibble: 1 x 6
#>   username private user_name vip   vip_ep user_slug
#>   <chr>    <lgl>   <lgl>     <lgl> <lgl>  <chr>    
#> 1 flagg    FALSE   NA        FALSE FALSE  flagg    
shows_watching("the-simpsons")
#> # A tibble: 23 x 6
#>    username            private user_name        vip   vip_ep user_slug          
#>    <chr>               <lgl>   <chr>            <lgl> <lgl>  <chr>              
#>  1 orthodoxmonster     FALSE   <NA>             FALSE FALSE  orthodoxmonster    
#>  2 filipve             FALSE   Filip Vanden Ey… FALSE FALSE  filipve            
#>  3 bublinak            TRUE    <NA>             NA    NA     bublinak           
#>  4 DashRendar          FALSE   Dashiel MacTavi… FALSE FALSE  dashrendar         
#>  5 Guyde               TRUE    <NA>             NA    NA     guyde              
#>  6 tomislav_sb         FALSE   <NA>             FALSE FALSE  tomislav_sb        
#>  7 deusexmachina354    FALSE   Tyler            FALSE FALSE  deusexmachina354   
#>  8 papper              FALSE   Papper           FALSE FALSE  papper             
#>  9 moreton.andy@gmail… FALSE   Andy             FALSE FALSE  moreton-andy-gmail…
#> 10 jackyaz             TRUE    <NA>             NA    NA     jackyaz            
#> # … with 13 more rows
…
