…
## Examples

``` r
movies_aliases(190430)
#> # A tibble: 30 × 2
#>    title                   country
#>    <chr>                   <chr>  
#>  1 X-Men Origins: Deadpool us     
#>  2 X-Men: Deadpool         us     
#>  3 Deadpool                br     
#>  4 Дедпул                  bg     
#>  5 Dedpul                  rs     
#>  6 Дэдпул                  ru     
#>  7 惡棍英雄：死侍          tw     
#>  8 死侍：不死现身          cn     
#>  9 X战警：死侍             cn     
#> 10 Deadpool 1              us     
#> # ℹ 20 more rows
shows_aliases(104439)
#> # A tibble: 713 × 2
#>    title                   country
#>    <chr>                   <chr>  
#>  1 Очень странные дела     us     
#>  2 Странные вещи           us     
#>  3 Загадкові справи        ua     
#>  4 Keisti dalykai          lt     
#>  5 Крайне странные события ru     
#>  6 უცნაური საქმეები        ge     
#>  7 Stranger Things (2016)  cn     
#>  8 Stranger Things         cn     
#>  9 Странные вещи           ru     
#> 10 Крайне странные события ru     
#> # ℹ 703 more rows
```
