Get all movie / show aliases — media_aliases • tRakt
…
#>  5 Dedpul                  rs     
#>  6 Дэдпул                  ru     
#>  7 惡棍英雄：死侍          tw     
#>  8 死侍：不死现身          cn     
#>  9 X战警：死侍             cn     
#> 10 Deadpool 1              us     
#> 11 Masacre                 es     
#> 12 데드풀                  kr     
#> 13 死侍                    cn     
#> 14 08 Deadpool             cz     
#> 15 Deadpool 01 Deadpool    us     
#> 16 เดดพูล                   th     
shows_aliases(104439)

#> # A tibble: 43 x 2
#>    title                   country
#>    <chr>                   <chr>  
#>  1 Очень странные дела     us     
#>  2 Странные вещи           us     
#>  3 Загадкові справи        ua     
#>  4 Keisti dalykai          lt     
#>  5 Крайне странные события ru     
#>  6 უცნაური საქმეები        ge     
#>  7 Stranger Things (2016)  cn     
#>  8 Stranger Things         cn     
#>  9 Странные вещи           ru     
#> 10 Крайне странные события ru     
#> # … with 33 more rows
…
