…
## Examples

``` r
people_movies("christopher-nolan")
#> $cast
#> # A tibble: 33 × 10
#>    character  characters  year title imdb  slug  tmdb  trakt plex_guid plex_slug
#>    <chr>      <list>     <int> <chr> <chr> <chr> <chr> <chr> <chr>     <chr>    
#>  1 "Self"     <chr [1]>   2025 Hans… tt35… hans… 1425… 1166… 679c165d… hans-zim…
#>  2 "Self - D… <chr [1]>   2023 Insi… tt28… insi… 1152… 9286… 64cb19e7… inside-c…
#>  3 "Self - W… <chr [1]>   2023 To E… tt28… to-e… 1149… 9263… 64a73d40… to-end-a…
#>  4 "Self - F… <chr [1]>   2023 MCAI… tt27… mcai… 9388… 7538… 641c04c7… mcaine-a…
#>  5 "Self"     <chr [1]>   2022 Hans… tt22… hans… 1031… 8298… 633f0ac3… hans-zim…
#>  6 "Self"     <chr [1]>   2021 Catw… tt16… catw… 8297… 6619… 619e3603… dc-villa…
#>  7 "Self"     <chr [1]>   2020 Look… tt13… look… 1417… 1159… 6013c9bb… looking-…
#>  8 "Self"     <chr [1]>   2020 Joke… tt12… joke… 7345… 5763… 5f3e352b… joker-pu…
#>  9 "Self"     <chr [1]>   2019 Maki… tt38… maki… 5958… 4418… 5d776ead… making-w…
#> 10 "Self"     <chr [1]>   2017 Behi… tt15… behi… 8661… 6925… 61323070… behind-t…
#> # ℹ 23 more rows
#> 
#> $crew
#> # A tibble: 67 × 11
#>    job   jobs   year title imdb  slug  tmdb  trakt plex_guid plex_slug crew_type
#>    <chr> <lis> <int> <chr> <chr> <chr> <chr> <chr> <chr>     <chr>     <chr>    
#>  1 Prod… <chr>  2026 The … tt33… the-… 1368… 1117… 670cb742… the-odys… producti…
#>  2 Exec… <chr>  2025 Sana… tt33… sana… 4238… 2871… 66b3ff7e… sanatori… producti…
#>  3 Prod… <chr>  2023 Oppe… tt15… oppe… 8725… 6982… 613b6946… oppenhei… producti…
#>  4 Exec… <chr>  2021 Zack… tt12… zack… 7913… 6270… 5ea7e109… zack-sny… producti…
#>  5 Prod… <chr>  2020 Tenet tt67… tene… 5779… 4279… 5d7770c2… tenet     producti…
#>  6 Prod… <chr>  2019 The … tt10… the-… 6226… 4649… NA        NA        producti…
#>  7 Exec… <chr>  2017 Just… tt09… just… 1410… 94232 5d7769aa… justice-… producti…
#>  8 Prod… <chr>  2017 Dunk… tt50… dunk… 3747… 2246… 5d776c06… dunkirk   producti…
#>  9 Exec… <chr>  2016 Batm… tt29… batm… 2091… 1295… 5d776a3c… batman-v… producti…
#> 10 Prod… <chr>  2015 Quay  tt49… quay… 3521… 2470… 5d776bc5… quay      producti…
#> # ℹ 57 more rows
…
