Game of Thrones episodes — gameofthrones • tRakt
…
director, writerDirection and writing credits

first_aired, first_aired.stringOriginal airdate in UTC as
POSIXct and character

trakt, tvdb, tmdbEpisode IDs for trakt.tv, TVDb, and TMDb

    See also

    Other Episode datasets: futurama

    Examples

gameofthrones
#> # A tibble: 67 x 19
#>    episode_abs episode season epid  runtime title  year overview rating_trakt
#>          <int>   <int> <ord>  <chr>   <int> <chr> <dbl> <chr>           <dbl>
#>  1           1       1 1      s01e…      61 Wint…  2011 Ned Sta…         8.09
#>  2           2       2 1      s01e…      55 The …  2011 Having …         8.10
#>  3           3       3 1      s01e…      57 Lord…  2011 Arrivin…         8.03
#>  4           4       4 1      s01e…      55 Crip…  2011 Ned loo…         8.07
#>  5           5       5 1      s01e…      54 The …  2011 Incense…         8.09
#>  6           6       6 1      s01e…      52 A Go…  2011 "Reinst…         8.28
#>  7           7       7 1      s01e…      57 You …  2011 Explain…         8.26
#>  8           8       8 1      s01e…      58 The …  2011 In the …         8.12
#>  9           9       9 1      s01e…      56 Bael…  2011 With Sa…         8.34
#> 10          10      10 1      s01e…      52 Fire…  2011 As trag…         8.57
#> # … with 57 more rows, and 10 more variables: votes_trakt <int>, viewers <dbl>,
#> #   director <chr>, writer <chr>, first_aired <dttm>, first_aired.string <chr>,
#> #   trakt <int>, imdb <chr>, tvdb <int>, tmdb <int>
…
